optimized/test.vcd
$date
	Tue Apr 11 01:44:46 2023
$end
$version
	Icarus Verilog
$end
$timescale
	100ps
$end
$scope module tb_CPU $end
$var reg 1 ! clk $end
$var reg 1 " rst $end
$scope module CPU $end
$var wire 1 ! clk $end
$var wire 1 " rst $end
$var wire 1 # zero $end
$var wire 32 $ target_address [31:0] $end
$var wire 32 % t_addr [31:0] $end
$var wire 1 & stall $end
$var wire 32 ' result [31:0] $end
$var wire 1 ( miss_predict $end
$var wire 32 ) mem_pc [31:0] $end
$var wire 1 * is_branch $end
$var wire 1 + hit $end
$var wire 32 , f_INST [31:0] $end
$var wire 1 - clk_50 $end
$var wire 1 . branch $end
$var wire 32 / WB_OUTPUT [31:0] $end
$var wire 32 0 S_INST [31:0] $end
$var wire 32 1 R_DATA [31:0] $end
$var wire 32 2 RD2 [31:0] $end
$var wire 32 3 RD1 [31:0] $end
$var wire 32 4 PC_4 [31:0] $end
$var wire 32 5 PC [31:0] $end
$var wire 71 6 MEM_WB_Q [70:0] $end
$var wire 71 7 MEM_WB_D [70:0] $end
$var wire 32 8 INST [31:0] $end
$var wire 66 9 IF_ID_Q [65:0] $end
$var wire 66 : IF_ID_D [65:0] $end
$var wire 6 ; ID_control [5:0] $end
$var wire 155 < ID_EX_Q [154:0] $end
$var wire 155 = ID_EX_D [154:0] $end
$var wire 1 > Flush $end
$var wire 32 ? F_B [31:0] $end
$var wire 5 @ EX_control [4:0] $end
$var wire 140 A EX_MEM_Q [139:0] $end
$var wire 140 B EX_MEM_D [139:0] $end
$var wire 4 C ALU_control [3:0] $end
$scope module DUT_EX_MEM $end
$var wire 140 D D [139:0] $end
$var wire 1 E EN $end
$var wire 1 ! clk $end
$var wire 1 " rst $end
$var wire 140 F Q [139:0] $end
$scope module REG_EX_MEM $end
$var wire 1 ! CLK $end
$var wire 140 G D [139:0] $end
$var wire 1 E EN $end
$var wire 1 " RST $end
$var wire 140 H Q [139:0] $end
$var reg 140 I Q_r [139:0] $end
$upscope $end
$upscope $end
$scope module DUT_EX_STAGE $end
$var wire 1 J ALUSrc $end
$var wire 4 K ALU_control [3:0] $end
$var wire 32 L ALU_result [31:0] $end
$var wire 5 M EX_MEM_RD [4:0] $end
$var wire 1 N EX_MEM_RegWrite $end
$var wire 5 O EX_control [4:0] $end
$var wire 32 P F_B [31:0] $end
$var wire 5 Q MEM_WB_RD [4:0] $end
$var wire 1 R MEM_WB_RegWrite $end
$var wire 32 S RD1 [31:0] $end
$var wire 32 T RD2 [31:0] $end
$var wire 5 U RS1 [4:0] $end
$var wire 5 V RS2 [4:0] $end
$var wire 32 W S_INST [31:0] $end
$var wire 32 X pc [31:0] $end
$var wire 1 # zero $end
$var wire 32 Y t_addr [31:0] $end
$var wire 32 Z result [31:0] $end
$var wire 1 + hit $end
$var wire 1 > flush $end
$var wire 5 [ f_ex_ctrl [4:0] $end
$var wire 32 \ WB_OUTPUT [31:0] $end
$var wire 2 ] ForwardB [1:0] $end
$var wire 2 ^ ForwardA [1:0] $end
$var wire 32 _ B [31:0] $end
$var wire 32 ` ALU_MUX_OUTPUT [31:0] $end
$var wire 32 a A [31:0] $end
$scope module DUT_ALU $end
$var wire 4 b ALU_control [3:0] $end
$var wire 1 # zero $end
$var wire 32 c result [31:0] $end
$var wire 32 d B [31:0] $end
$var wire 32 e A [31:0] $end
$var reg 64 f result_mult [63:0] $end
$var reg 32 g result_r [31:0] $end
$var reg 1 # zero_r $end
$upscope $end
$scope module DUT_ALU_MUX $end
$var wire 1 J ALUSrc $end
$var wire 32 h ALU_MUX_OUTPUT [31:0] $end
$var wire 32 i S_INST [31:0] $end
$var wire 32 j ForwardB_MUX_OUTPUT [31:0] $end
$var reg 32 k ALU_MUX_OUTPUT_r [31:0] $end
$upscope $end
$scope module DUT_EX_MEM_FLUSH $end
$var wire 5 l ex_mem_ctrl [4:0] $end
$var wire 1 + hit $end
$var wire 1 > flush $end
$var wire 5 m ex_mem_f_ctrl [4:0] $end
$upscope $end
$scope module DUT_FORWARDING_MUX $end
$var wire 32 n A [31:0] $end
$var wire 32 o ALU_result [31:0] $end
$var wire 32 p RD1 [31:0] $end
$var wire 32 q RD2 [31:0] $end
$var wire 32 r WB_OUTPUT [31:0] $end
$var wire 2 s ForwardB [1:0] $end
$var wire 2 t ForwardA [1:0] $end
$var wire 32 u B [31:0] $end
$var reg 32 v A_r [31:0] $end
$var reg 32 w B_r [31:0] $end
$upscope $end
$scope module DUT_FORWARDING_UNIT $end
$var wire 5 x EX_MEM_RD [4:0] $end
$var wire 1 N EX_MEM_RegWrite $end
$var wire 2 y ForwardA [1:0] $end
$var wire 2 z ForwardB [1:0] $end
$var wire 5 { MEM_WB_RD [4:0] $end
$var wire 1 R MEM_WB_RegWrite $end
$var wire 5 | RS1 [4:0] $end
$var wire 5 } RS2 [4:0] $end
$var reg 2 ~ ForwardA_r [1:0] $end
$var reg 2 !" ForwardB_r [1:0] $end
$upscope $end
$upscope $end
$scope module DUT_FALLING_EDGE_DETECTOR $end
$var wire 1 ! clk $end
$var wire 1 - fall_detected $end
$var wire 1 " rst $end
$var wire 1 "" signal $end
$var reg 1 #" clk_q $end
$upscope $end
$scope module DUT_ID_EX $end
$var wire 155 $" D [154:0] $end
$var wire 1 %" EN $end
$var wire 1 ! clk $end
$var wire 1 " rst $end
$var wire 1 > flush $end
$var wire 155 &" Q [154:0] $end
$scope module REG_ID_EX $end
$var wire 1 ! CLK $end
$var wire 155 '" D [154:0] $end
$var wire 1 %" EN $end
$var wire 1 " RST $end
$var wire 155 (" Q [154:0] $end
$var reg 155 )" Q_r [154:0] $end
$upscope $end
$upscope $end
$scope module DUT_ID_STAGE $end
$var wire 32 *" INST [31:0] $end
$var wire 1 +" MEMRead $end
$var wire 5 ," RD [4:0] $end
$var wire 1 -" RegWrite $end
$var wire 5 ." WR [4:0] $end
$var wire 1 ! clk $end
$var wire 1 " rst $end
$var wire 1 & stall $end
$var wire 1 + hit $end
$var wire 1 > flush $end
$var wire 6 /" f_id_ctrl [5:0] $end
$var wire 8 0" control [7:0] $end
$var wire 32 1" WD [31:0] $end
$var wire 32 2" S_INST [31:0] $end
$var wire 32 3" RD2 [31:0] $end
$var wire 32 4" RD1 [31:0] $end
$var wire 4 5" ALU_control [3:0] $end
$scope module DUT_ALU_CONTROL $end
$var wire 2 6" ALUOp [1:0] $end
$var wire 3 7" funct3 [2:0] $end
$var wire 2 8" funct7 [1:0] $end
$var wire 4 9" ALU_control [3:0] $end
$var reg 4 :" ALU_control_r [3:0] $end
$upscope $end
$scope module DUT_CONTROL $end
$var wire 7 ;" opcode [6:0] $end
$var wire 8 <" control [7:0] $end
$var wire 1 & CtrlSrc $end
$var reg 8 =" control_r [7:0] $end
$upscope $end
$scope module DUT_HAZARD_DETECTION $end
$var wire 1 +" MEMRead $end
$var wire 5 >" RD [4:0] $end
$var wire 5 ?" RS1 [4:0] $end
$var wire 5 @" RS2 [4:0] $end
$var wire 1 & stall $end
$var reg 1 & stall_r $end
$upscope $end
$scope module DUT_ID_EX_FLUSH $end
$var wire 6 A" id_ex_ctrl [5:0] $end
$var wire 6 B" id_ex_f_ctrl [5:0] $end
$var wire 1 + hit $end
$var wire 1 > flush $end
$upscope $end
$scope module DUT_IMMGEN $end
$var wire 32 C" INST [31:0] $end
$var wire 32 D" S_INST [31:0] $end
$var reg 32 E" INST_r [31:0] $end
$upscope $end
$scope module DUT_REGISTER_FILE $end
$var wire 32 F" RD1 [31:0] $end
$var wire 32 G" RD2 [31:0] $end
$var wire 5 H" RR1 [4:0] $end
$var wire 5 I" RR2 [4:0] $end
$var wire 1 -" WE $end
$var wire 5 J" WR [4:0] $end
$var wire 1 ! clk $end
$var wire 1 " rst $end
$var wire 32 K" WD [31:0] $end
$var reg 7 L" i [6:0] $end
$upscope $end
$upscope $end
$scope module DUT_IF_ID $end
$var wire 66 M" D [65:0] $end
$var wire 1 & IF_IDWrite $end
$var wire 1 ! clk $end
$var wire 1 " rst $end
$var wire 66 N" Q [65:0] $end
$scope module REG_IF_ID $end
$var wire 1 ! CLK $end
$var wire 66 O" D [65:0] $end
$var wire 1 & EN $end
$var wire 1 " RST $end
$var wire 66 P" Q [65:0] $end
$var reg 66 Q" Q_r [65:0] $end
$upscope $end
$upscope $end
$scope module DUT_IF_STAGE $end
$var wire 1 & PCWrite $end
$var wire 1 ! clk $end
$var wire 1 - clk_50 $end
$var wire 1 R" ex_is_branch $end
$var wire 1 S" mem_is_taken $end
$var wire 1 " rst $end
$var wire 32 T" t_addr [31:0] $end
$var wire 2 U" state [1:0] $end
$var wire 32 V" pc [31:0] $end
$var wire 32 W" next_pc [31:0] $end
$var wire 32 X" n_pc [31:0] $end
$var wire 1 ( miss_predict $end
$var wire 32 Y" mem_pc [31:0] $end
$var wire 1 * is_branch $end
$var wire 32 Z" inst [31:0] $end
$var wire 1 + hit $end
$var wire 32 [" b_pc [31:0] $end
$var wire 1 > T_NT $end
$var wire 32 \" PC_4 [31:0] $end
$var wire 1 . PCSrc $end
$scope module DUT_BHT $end
$var wire 1 ! clk $end
$var wire 1 R" ex_is_branch $end
$var wire 1 S" mem_is_taken $end
$var wire 1 " rst $end
$var wire 2 ]" state [1:0] $end
$var wire 1 ( miss_predict $end
$var wire 32 ^" mem_pc [31:0] $end
$var wire 1 + is_taken $end
$var wire 32 _" b_pc [31:0] $end
$var wire 1 > T_NT $end
$var wire 1 . PCSrc $end
$var reg 9 `" i [8:0] $end
$var reg 1 ( miss_predict_r $end
$upscope $end
$scope module DUT_BTB $end
$var wire 1 > is_taken $end
$var wire 1 ( miss_predict $end
$var wire 2 a" state [1:0] $end
$var wire 32 b" target [31:0] $end
$var wire 32 c" pc [31:0] $end
$var wire 32 d" next_pc [31:0] $end
$var wire 32 e" mem_pc [31:0] $end
$var wire 1 * is_branch $end
$var wire 1 + hit $end
$var wire 1 . PCSrc $end
$var reg 1 + hit_r $end
$var reg 8 f" i [7:0] $end
$var reg 32 g" next_pc_r [31:0] $end
$upscope $end
$scope module DUT_INST_MEM $end
$var wire 1 - clk_50 $end
$var wire 1 " rst $end
$var wire 32 h" INST [31:0] $end
$var wire 32 i" ADDR [31:0] $end
$var reg 32 j" INST_r [31:0] $end
$upscope $end
$scope module DUT_PC $end
$var wire 1 & PCWrite $end
$var wire 1 ! clk $end
$var wire 1 " rst $end
$var wire 32 k" pc [31:0] $end
$var wire 32 l" n_pc [31:0] $end
$scope module PC $end
$var wire 1 ! CLK $end
$var wire 1 & EN $end
$var wire 1 " RST $end
$var wire 32 m" Q [31:0] $end
$var wire 32 n" D [31:0] $end
$var reg 32 o" Q_r [31:0] $end
$upscope $end
$upscope $end
$scope module DUT_PC_MUX $end
$var wire 32 p" PC_4 [31:0] $end
$var wire 1 > sel_mux $end
$var wire 32 q" target_address [31:0] $end
$var wire 32 r" next_pc [31:0] $end
$upscope $end
$scope module DUT_PREDICTOR $end
$var wire 7 s" opcode [6:0] $end
$var wire 2 t" p_state [1:0] $end
$var wire 32 u" pc [31:0] $end
$var wire 2 v" state [1:0] $end
$var wire 1 * is_branch $end
$var wire 32 w" b_pc [31:0] $end
$upscope $end
$upscope $end
$scope module DUT_MEM_STAGE $end
$var wire 5 x" MEM_control [4:0] $end
$var wire 32 y" WD [31:0] $end
$var wire 1 . branch $end
$var wire 1 - clk_50 $end
$var wire 1 z" hit $end
$var wire 32 {" mem_pc [31:0] $end
$var wire 32 |" mem_pc_o [31:0] $end
$var wire 32 }" result [31:0] $end
$var wire 1 " rst $end
$var wire 1 ~" zero $end
$var wire 32 !# R_DATA [31:0] $end
$scope module DUT_DATA_MEM $end
$var wire 32 "# ADDR [31:0] $end
$var wire 1 ## MEMRead $end
$var wire 1 $# MEMWrite $end
$var wire 32 %# WD [31:0] $end
$var wire 1 - clk_50 $end
$var wire 1 &# rst $end
$var wire 10 '# word_addr [9:0] $end
$var wire 32 (# RD [31:0] $end
$var reg 32 )# RD_r [31:0] $end
$upscope $end
$upscope $end
$scope module DUT_MEM_WB $end
$var wire 71 *# D [70:0] $end
$var wire 1 ! clk $end
$var wire 1 " rst $end
$var wire 71 +# Q [70:0] $end
$scope module REG_MEM_WB $end
$var wire 1 ! CLK $end
$var wire 71 ,# D [70:0] $end
$var wire 1 -# EN $end
$var wire 1 " RST $end
$var wire 71 .# Q [70:0] $end
$var reg 71 /# Q_r [70:0] $end
$upscope $end
$upscope $end
$scope module DUT_WB_STAGE $end
$var wire 32 0# R_DATA [31:0] $end
$var wire 1 1# WB $end
$var wire 32 2# result [31:0] $end
$var wire 32 3# WB_OUTPUT [31:0] $end
$upscope $end
$upscope $end
$upscope $end
$enddefinitions $end
#0
$dumpvars
bx 3#
bx 2#
x1#
bx 0#
bx /#
bx .#
0-#
bxzzzzzzzzzzzzzzzzzzzzzzzzzzzzzzzzxxxxxxxxxxxxxxxxxxxxxxxxxxxxxxxxxxxxx ,#
bx +#
bxzzzzzzzzzzzzzzzzzzzzzzzzzzzzzzzzxxxxxxxxxxxxxxxxxxxxxxxxxxxxxxxxxxxxx *#
bz )#
bz (#
bx '#
z&#
bx %#
x$#
x##
bx "#
bz !#
x~"
bx }"
bx |"
bx {"
xz"
bx y"
bx x"
b0 w"
bx v"
bx u"
bz t"
b0 s"
bx r"
b0 q"
bx p"
bx o"
bx n"
bx m"
bx l"
bx k"
b0 j"
bx i"
b0 h"
b0 g"
b1000000 f"
bx e"
b0 d"
b0 c"
bx b"
bx a"
b0 `"
b0 _"
bx ^"
bx ]"
bx \"
b0 ["
b0 Z"
bx Y"
bx X"
b0 W"
bx V"
bx U"
bx T"
xS"
xR"
bx Q"
bx P"
b0xxxxxxxxxxxxxxxxxxxxxxxxxxxxxxxx000000000000000000000000000x00xx O"
bx N"
b0xxxxxxxxxxxxxxxxxxxxxxxxxxxxxxxx000000000000000000000000000x00xx M"
b0 L"
bx K"
bx J"
bx I"
bx H"
bx G"
bx F"
bx E"
bx D"
bx C"
bx B"
bx A"
bx @"
bx ?"
bx >"
bx ="
bx <"
bx ;"
b0 :"
b0 9"
bx 8"
bx 7"
bx 6"
b0 5"
bx 4"
bx 3"
bx 2"
bx 1"
bx 0"
bx /"
bx ."
x-"
bx ,"
x+"
bx *"
bx )"
bx ("
bx0000xxxxx '"
bx &"
0%"
bx0000xxxxx $"
1#"
z""
b0 !"
b0 ~
bx }
bx |
bx {
b0 z
b0 y
bx x
bx w
bx v
bx u
b0 t
b0 s
bx r
bx q
bx p
bx o
bx n
bx m
bx l
bx k
bx j
bx i
bx h
b0 g
b0 f
bx e
bx d
b0 c
bx b
bx a
bx `
bx _
b0 ^
b0 ]
bx \
bx [
b0 Z
bx Y
bx X
bx W
bx V
bx U
bx T
bx S
xR
bx Q
bx P
bx O
xN
bx M
bx L
bx K
xJ
bx I
bx H
bx000000000000000000000000000000000xxxxxxxxxxxxxxxxxxxxxxxxxxxxxxxxxxxxx G
bx F
0E
bx000000000000000000000000000000000xxxxxxxxxxxxxxxxxxxxxxxxxxxxxxxxxxxxx D
b0 C
bx000000000000000000000000000000000xxxxxxxxxxxxxxxxxxxxxxxxxxxxxxxxxxxxx B
bx A
bx @
bx ?
x>
bx0000xxxxx =
bx <
bx ;
b0xxxxxxxxxxxxxxxxxxxxxxxxxxxxxxxx000000000000000000000000000x00xx :
bx 9
b0 8
bxzzzzzzzzzzzzzzzzzzzzzzzzzzzzzzzzxxxxxxxxxxxxxxxxxxxxxxxxxxxxxxxxxxxxx 7
bx 6
bx 5
bx 4
bx 3
bx 2
bz 1
bx 0
bx /
x.
1-
b0x00xx ,
0+
0*
bx )
x(
b0 '
0&
bx %
bx $
0#
0"
0!
$end
#500
b0 ,
0>
b0 ?"
b0 @"
b0 ;"
b0 3
b0 4"
b0 F"
b0 H"
b0 2
b0 3"
b0 G"
b0 I"
b0 8"
b0 7"
b0 0
b0 2"
b0 D"
b0 E"
b0 %
b0 Y
b0 `
b0 d
b0 h
b0 k
b0 @
b0 [
b0 m
0(
b0 '#
0.
0##
0$#
b0 ?
b0 P
b0 _
b0 j
b0 u
b0 w
b0 a
b0 e
b0 n
b0 v
b0 /
b0 \
b0 r
b0 1"
b0 K"
b0 3#
b100 X"
b100 l"
b100 n"
b100 r"
b0xxxxxx000000000000000000000000000000000000000000000000000000000000000000000000000000000000000000000000000000000000000000000000000000000000000000000000000 =
b0xxxxxx000000000000000000000000000000000000000000000000000000000000000000000000000000000000000000000000000000000000000000000000000000000000000000000000000 $"
b0xxxxxx000000000000000000000000000000000000000000000000000000000000000000000000000000000000000000000000000000000000000000000000000000000000000000000000000 '"
b0 *"
b0 C"
b0 B
b0 D
b0 G
b0 K
b0 b
b0 T
b0 q
b0 S
b0 p
b0 V
b0 }
b0 U
b0 |
b0 W
b0 i
b0 X
0J
b0 O
b0 l
0+"
b0 ,"
b0 >"
0R"
b0zzzzzzzzzzzzzzzzzzzzzzzzzzzzzzzz0000000000000000000000000000000000000 7
b0zzzzzzzzzzzzzzzzzzzzzzzzzzzzzzzz0000000000000000000000000000000000000 *#
b0zzzzzzzzzzzzzzzzzzzzzzzzzzzzzzzz0000000000000000000000000000000000000 ,#
0z"
b0 )
b0 Y"
b0 ^"
b0 e"
b0 |"
b0 {"
b0 y"
b0 %#
b0 }"
b0 "#
0~"
b0 x"
b0 L
b0 o
0N
b0 M
b0 x
0S"
b0 $
b0 T"
b0 b"
b0 2#
b0 0#
01#
0R
b0 Q
b0 {
0-"
b0 ."
b0 J"
b100 4
b100 \"
b100 p"
b0 :
b0 M"
b0 O"
b0 5
b0 V"
b0 i"
b0 k"
b0 m"
b0 o"
b0 u"
b0 9
b0 N"
b0 P"
b0 Q"
b0 <
b0 &"
b0 ("
b0 )"
b0 A
b0 F
b0 H
b0 I
b0 6
b0 +#
b0 .#
b0 /#
0-
b100000000 `"
b0 U"
b0 ]"
b0 a"
b0 v"
b100000 L"
1"
1!
#1000
b10011 s"
b10011 :
b10011 M"
b10011 O"
b10011 ,
b10011 8
b10011 Z"
b10011 h"
b10011 j"
1-
0"
0!
#1500
b101100 ;
b101100 /"
b101100 B"
b101100000000000000000000000000000000000000000000000000000000000000000000000000000000000000000000000000000000000000000000000000000000000000000000001000000 =
b101100000000000000000000000000000000000000000000000000000000000000000000000000000000000000000000000000000000000000000000000000000000000000000000001000000 $"
b101100000000000000000000000000000000000000000000000000000000000000000000000000000000000000000000000000000000000000000000000000000000000000000000001000000 '"
b10 C
b10 5"
b10 9"
b10 :"
b101100 A"
b11 6"
b10110011 0"
b10110011 <"
b10110011 ="
b0xxxxx000000000000000000000000000000000000000000000000000000000000000000000000000000000000000000000000000000 B
b0xxxxx000000000000000000000000000000000000000000000000000000000000000000000000000000000000000000000000000000 D
b0xxxxx000000000000000000000000000000000000000000000000000000000000000000000000000000000000000000000000000000 G
bx @
bx [
bx m
b10011 ;"
bz 0#
xJ
bx O
bx l
x+"
b10011 *"
b10011 C"
b1000 X"
b1000 l"
b1000 n"
b1000 r"
b0zzzzzzzzzzzzzzzzzzzzzzzzzzzzzzzz0000000000000000000000000000000000000 6
b0zzzzzzzzzzzzzzzzzzzzzzzzzzzzzzzz0000000000000000000000000000000000000 +#
b0zzzzzzzzzzzzzzzzzzzzzzzzzzzzzzzz0000000000000000000000000000000000000 .#
b0zzzzzzzzzzzzzzzzzzzzzzzzzzzzzzzz0000000000000000000000000000000000000 /#
b0xxxxxx000000000000000000000000000000000000000000000000000000000000000000000000000000000000000000000000000000000000000000000000000000000000000000000000000 <
b0xxxxxx000000000000000000000000000000000000000000000000000000000000000000000000000000000000000000000000000000000000000000000000000000000000000000000000000 &"
b0xxxxxx000000000000000000000000000000000000000000000000000000000000000000000000000000000000000000000000000000000000000000000000000000000000000000000000000 ("
b0xxxxxx000000000000000000000000000000000000000000000000000000000000000000000000000000000000000000000000000000000000000000000000000000000000000000000000000 )"
b10011 9
b10011 N"
b10011 P"
b10011 Q"
b1000 4
b1000 \"
b1000 p"
b10000000000000000000000000000010011 :
b10000000000000000000000000000010011 M"
b10000000000000000000000000000010011 O"
b100 5
b100 V"
b100 i"
b100 k"
b100 m"
b100 o"
b100 u"
0-
1!
#2000
1-
0!
#2500
b0 ;
b0 /"
b0 B"
b0 A"
b0 6"
b0 0"
b0 <"
b1100000000000000000000000000000000000000000000000000000000000000000000000000000000000000000000000000000000 B
b1100000000000000000000000000000000000000000000000000000000000000000000000000000000000000000000000000000000 D
b1100000000000000000000000000000000000000000000000000000000000000000000000000000000000000000000000000000000 G
b1100 @
b1100 [
b1100 m
1&
x##
x$#
b1100 X"
b1100 l"
b1100 n"
b1100 r"
b1000000000000000000000000000000000000000000000000000000000000000000000000000000000000000000000000000000000000001000000 =
b1000000000000000000000000000000000000000000000000000000000000000000000000000000000000000000000000000000000000001000000 $"
b1000000000000000000000000000000000000000000000000000000000000000000000000000000000000000000000000000000000000001000000 '"
b10 K
b10 b
1J
b1100 O
b1100 l
1+"
bxzzzzzzzzzzzzzzzzzzzzzzzzzzzzzzzz0000000000000000000000000000000000000 7
bxzzzzzzzzzzzzzzzzzzzzzzzzzzzzzzzz0000000000000000000000000000000000000 *#
bxzzzzzzzzzzzzzzzzzzzzzzzzzzzzzzzz0000000000000000000000000000000000000 ,#
bx x"
xN
b1100 4
b1100 \"
b1100 p"
b100000000000000000000000000000010011 :
b100000000000000000000000000000010011 M"
b100000000000000000000000000000010011 O"
b1000 5
b1000 V"
b1000 i"
b1000 k"
b1000 m"
b1000 o"
b1000 u"
b10000000000000000000000000000010011 9
b10000000000000000000000000000010011 N"
b10000000000000000000000000000010011 P"
b10000000000000000000000000000010011 Q"
b101100000000000000000000000000000000000000000000000000000000000000000000000000000000000000000000000000000000000000000000000000000000000000000000001000000 <
b101100000000000000000000000000000000000000000000000000000000000000000000000000000000000000000000000000000000000000000000000000000000000000000000001000000 &"
b101100000000000000000000000000000000000000000000000000000000000000000000000000000000000000000000000000000000000000000000000000000000000000000000001000000 ("
b101100000000000000000000000000000000000000000000000000000000000000000000000000000000000000000000000000000000000000000000000000000000000000000000001000000 )"
b0xxxxx000000000000000000000000000000000000000000000000000000000000000000000000000000000000000000000000000000 A
b0xxxxx000000000000000000000000000000000000000000000000000000000000000000000000000000000000000000000000000000 F
b0xxxxx000000000000000000000000000000000000000000000000000000000000000000000000000000000000000000000000000000 H
b0xxxxx000000000000000000000000000000000000000000000000000000000000000000000000000000000000000000000000000000 I
0-
1!
#3000
1-
0!
#3500
b101100000000000000000000000000000001000000000000000000000000000000000000000000000000000000000000000000000000000000000000000000000000000000000000001000000 =
b101100000000000000000000000000000001000000000000000000000000000000000000000000000000000000000000000000000000000000000000000000000000000000000000001000000 $"
b101100000000000000000000000000000001000000000000000000000000000000000000000000000000000000000000000000000000000000000000000000000000000000000000001000000 '"
b101100 ;
b101100 /"
b101100 B"
b101100 A"
b11 6"
b10110011 0"
b10110011 <"
bx /
bx \
bx r
bx 1"
bx K"
bx 3#
1##
0$#
b0 @
b0 [
b0 m
0&
x1#
xR
x-"
b1zzzzzzzzzzzzzzzzzzzzzzzzzzzzzzzz0000000000000000000000000000000000000 7
b1zzzzzzzzzzzzzzzzzzzzzzzzzzzzzzzz0000000000000000000000000000000000000 *#
b1zzzzzzzzzzzzzzzzzzzzzzzzzzzzzzzz0000000000000000000000000000000000000 ,#
b1100 x"
1N
b10000000000000000000000000000000000001000000000000000000000000000000000000000000000000000000000000000000000000 B
b10000000000000000000000000000000000001000000000000000000000000000000000000000000000000000000000000000000000000 D
b10000000000000000000000000000000000001000000000000000000000000000000000000000000000000000000000000000000000000 G
b100 %
b100 Y
b100 X
0J
b0 O
b0 l
0+"
bxzzzzzzzzzzzzzzzzzzzzzzzzzzzzzzzz0000000000000000000000000000000000000 6
bxzzzzzzzzzzzzzzzzzzzzzzzzzzzzzzzz0000000000000000000000000000000000000 +#
bxzzzzzzzzzzzzzzzzzzzzzzzzzzzzzzzz0000000000000000000000000000000000000 .#
bxzzzzzzzzzzzzzzzzzzzzzzzzzzzzzzzz0000000000000000000000000000000000000 /#
b1100000000000000000000000000000000000000000000000000000000000000000000000000000000000000000000000000000000 A
b1100000000000000000000000000000000000000000000000000000000000000000000000000000000000000000000000000000000 F
b1100000000000000000000000000000000000000000000000000000000000000000000000000000000000000000000000000000000 H
b1100000000000000000000000000000000000000000000000000000000000000000000000000000000000000000000000000000000 I
b1000000000000000000000000000000000000000000000000000000000000000000000000000000000000000000000000000000000000001000000 <
b1000000000000000000000000000000000000000000000000000000000000000000000000000000000000000000000000000000000000001000000 &"
b1000000000000000000000000000000000000000000000000000000000000000000000000000000000000000000000000000000000000001000000 ("
b1000000000000000000000000000000000000000000000000000000000000000000000000000000000000000000000000000000000000001000000 )"
0-
1!
#4000
b1000000000000000000000000000000010000000000000000000000000000000000000 7
b1000000000000000000000000000000010000000000000000000000000000000000000 *#
b1000000000000000000000000000000010000000000000000000000000000000000000 ,#
b1 1
b1 !#
b1 (#
b1 )#
1-
0!
#4500
b0 ;
b0 /"
b0 B"
b0 A"
b0 6"
b0 0"
b0 <"
b10001100000000000000000000000000000001000000000000000000000000000000000000000000000000000000000000000000000000 B
b10001100000000000000000000000000000001000000000000000000000000000000000000000000000000000000000000000000000000 D
b10001100000000000000000000000000000001000000000000000000000000000000000000000000000000000000000000000000000000 G
b1100 @
b1100 [
b1100 m
1&
0##
b0 /
b0 \
b0 r
b0 1"
b0 K"
b0 3#
b10000 X"
b10000 l"
b10000 n"
b10000 r"
b10000000000000000000000000000000000000000000000000000000000000000000000000000000000000000000000000000000000000001000000 =
b10000000000000000000000000000000000000000000000000000000000000000000000000000000000000000000000000000000000000001000000 $"
b10000000000000000000000000000000000000000000000000000000000000000000000000000000000000000000000000000000000000001000000 '"
1J
b1100 O
b1100 l
1+"
b10000000000000000000000000000000000000 7
b10000000000000000000000000000000000000 *#
b10000000000000000000000000000000000000 ,#
b100 )
b100 Y"
b100 ^"
b100 e"
b100 |"
b100 {"
b0 x"
0N
b100 $
b100 T"
b100 b"
b1 0#
01#
1R
1-"
b10000 4
b10000 \"
b10000 p"
b110000000000000000000000000000010011 :
b110000000000000000000000000000010011 M"
b110000000000000000000000000000010011 O"
b1100 5
b1100 V"
b1100 i"
b1100 k"
b1100 m"
b1100 o"
b1100 u"
b100000000000000000000000000000010011 9
b100000000000000000000000000000010011 N"
b100000000000000000000000000000010011 P"
b100000000000000000000000000000010011 Q"
b101100000000000000000000000000000001000000000000000000000000000000000000000000000000000000000000000000000000000000000000000000000000000000000000001000000 <
b101100000000000000000000000000000001000000000000000000000000000000000000000000000000000000000000000000000000000000000000000000000000000000000000001000000 &"
b101100000000000000000000000000000001000000000000000000000000000000000000000000000000000000000000000000000000000000000000000000000000000000000000001000000 ("
b101100000000000000000000000000000001000000000000000000000000000000000000000000000000000000000000000000000000000000000000000000000000000000000000001000000 )"
b10000000000000000000000000000000000001000000000000000000000000000000000000000000000000000000000000000000000000 A
b10000000000000000000000000000000000001000000000000000000000000000000000000000000000000000000000000000000000000 F
b10000000000000000000000000000000000001000000000000000000000000000000000000000000000000000000000000000000000000 H
b10000000000000000000000000000000000001000000000000000000000000000000000000000000000000000000000000000000000000 I
b1000000000000000000000000000000010000000000000000000000000000000000000 6
b1000000000000000000000000000000010000000000000000000000000000000000000 +#
b1000000000000000000000000000000010000000000000000000000000000000000000 .#
b1000000000000000000000000000000010000000000000000000000000000000000000 /#
0-
1!
#5000
b0zzzzzzzzzzzzzzzzzzzzzzzzzzzzzzzz0000000000000000000000000000000000000 7
b0zzzzzzzzzzzzzzzzzzzzzzzzzzzzzzzz0000000000000000000000000000000000000 *#
b0zzzzzzzzzzzzzzzzzzzzzzzzzzzzzzzz0000000000000000000000000000000000000 ,#
bz 1
bz !#
bz (#
bz )#
1-
0!
